ANPs,Riqueza,Grupo
1,0,Anfibios
2,0,Anfibios
3,0,Anfibios
4,0,Anfibios
5,0,Anfibios
6,0,Anfibios
7,0,Anfibios
8,1,Anfibios
9,0,Anfibios
10,1,Anfibios
11,1,Anfibios
12,0,Anfibios
13,0,Anfibios
14,6,Anfibios
15,0,Anfibios
16,1,Anfibios
17,6,Anfibios
18,0,Anfibios
19,0,Anfibios
20,3,Anfibios
21,0,Anfibios
22,0,Anfibios
23,0,Anfibios
24,0,Anfibios
25,0,Anfibios
26,2,Anfibios
27,1,Anfibios
28,0,Anfibios
29,0,Anfibios
30,1,Anfibios
31,1,Anfibios
32,1,Anfibios
33,0,Anfibios
34,0,Anfibios
35,0,Anfibios
36,0,Anfibios
37,1,Anfibios
38,0,Anfibios
39,0,Anfibios
40,1,Anfibios
41,0,Anfibios
42,0,Anfibios
43,0,Anfibios
44,0,Anfibios
45,0,Anfibios
46,0,Anfibios
47,0,Anfibios
48,0,Anfibios
49,0,Anfibios
50,0,Anfibios
51,0,Anfibios
52,0,Anfibios
53,0,Anfibios
54,4,Anfibios
55,0,Anfibios
56,1,Anfibios
57,1,Anfibios
58,1,Anfibios
59,0,Anfibios
60,2,Anfibios
61,3,Anfibios
62,0,Anfibios
63,0,Anfibios
64,2,Anfibios
65,1,Anfibios
66,0,Anfibios
67,0,Anfibios
1,4,Aves
2,6,Aves
3,0,Aves
4,0,Aves
5,1,Aves
6,4,Aves
7,2,Aves
8,3,Aves
9,4,Aves
10,3,Aves
11,3,Aves
12,1,Aves
13,3,Aves
14,10,Aves
15,0,Aves
16,1,Aves
17,7,Aves
18,4,Aves
19,2,Aves
20,4,Aves
21,3,Aves
22,0,Aves
23,2,Aves
24,1,Aves
25,0,Aves
26,4,Aves
27,4,Aves
28,4,Aves
29,4,Aves
30,3,Aves
31,2,Aves
32,4,Aves
33,4,Aves
34,4,Aves
35,4,Aves
36,1,Aves
37,3,Aves
38,2,Aves
39,4,Aves
40,2,Aves
41,6,Aves
42,2,Aves
43,5,Aves
44,2,Aves
45,0,Aves
46,2,Aves
47,1,Aves
48,1,Aves
49,4,Aves
50,3,Aves
51,3,Aves
52,4,Aves
53,3,Aves
54,3,Aves
55,1,Aves
56,5,Aves
57,2,Aves
58,3,Aves
59,1,Aves
60,4,Aves
61,8,Aves
62,0,Aves
63,4,Aves
64,3,Aves
65,3,Aves
66,0,Aves
67,0,Aves
1,0,Mamíferos
2,0,Mamíferos
3,0,Mamíferos
4,0,Mamíferos
5,0,Mamíferos
6,0,Mamíferos
7,0,Mamíferos
8,0,Mamíferos
9,0,Mamíferos
10,0,Mamíferos
11,0,Mamíferos
12,0,Mamíferos
13,0,Mamíferos
14,0,Mamíferos
15,0,Mamíferos
16,0,Mamíferos
17,0,Mamíferos
18,0,Mamíferos
19,0,Mamíferos
20,0,Mamíferos
21,0,Mamíferos
22,0,Mamíferos
23,0,Mamíferos
24,0,Mamíferos
25,0,Mamíferos
26,0,Mamíferos
27,0,Mamíferos
28,0,Mamíferos
29,0,Mamíferos
30,0,Mamíferos
31,0,Mamíferos
32,0,Mamíferos
33,0,Mamíferos
34,0,Mamíferos
35,0,Mamíferos
36,0,Mamíferos
37,0,Mamíferos
38,0,Mamíferos
39,0,Mamíferos
40,0,Mamíferos
41,0,Mamíferos
42,0,Mamíferos
43,0,Mamíferos
44,0,Mamíferos
45,0,Mamíferos
46,0,Mamíferos
47,0,Mamíferos
48,0,Mamíferos
49,0,Mamíferos
50,0,Mamíferos
51,0,Mamíferos
52,0,Mamíferos
53,0,Mamíferos
54,0,Mamíferos
55,0,Mamíferos
56,0,Mamíferos
57,0,Mamíferos
58,0,Mamíferos
59,0,Mamíferos
60,0,Mamíferos
61,0,Mamíferos
62,0,Mamíferos
63,0,Mamíferos
64,0,Mamíferos
65,0,Mamíferos
66,0,Mamíferos
67,0,Mamíferos
1,0,Peces
2,0,Peces
3,1,Peces
4,9,Peces
5,0,Peces
6,0,Peces
7,1,Peces
8,4,Peces
9,1,Peces
10,1,Peces
11,1,Peces
12,1,Peces
13,0,Peces
14,3,Peces
15,1,Peces
16,0,Peces
17,0,Peces
18,0,Peces
19,1,Peces
20,1,Peces
21,0,Peces
22,0,Peces
23,1,Peces
24,0,Peces
25,0,Peces
26,0,Peces
27,0,Peces
28,0,Peces
29,0,Peces
30,0,Peces
31,0,Peces
32,0,Peces
33,0,Peces
34,0,Peces
35,0,Peces
36,0,Peces
37,0,Peces
38,0,Peces
39,0,Peces
40,0,Peces
41,0,Peces
42,0,Peces
43,0,Peces
44,0,Peces
45,0,Peces
46,0,Peces
47,0,Peces
48,0,Peces
49,0,Peces
50,0,Peces
51,0,Peces
52,0,Peces
53,0,Peces
54,0,Peces
55,0,Peces
56,0,Peces
57,0,Peces
58,4,Peces
59,0,Peces
60,0,Peces
61,5,Peces
62,0,Peces
63,0,Peces
64,0,Peces
65,0,Peces
66,0,Peces
67,9,Peces
1,0,Reptiles
2,0,Reptiles
3,0,Reptiles
4,0,Reptiles
5,0,Reptiles
6,0,Reptiles
7,1,Reptiles
8,0,Reptiles
9,0,Reptiles
10,0,Reptiles
11,0,Reptiles
12,0,Reptiles
13,0,Reptiles
14,0,Reptiles
15,1,Reptiles
16,0,Reptiles
17,1,Reptiles
18,0,Reptiles
19,0,Reptiles
20,0,Reptiles
21,0,Reptiles
22,0,Reptiles
23,1,Reptiles
24,0,Reptiles
25,0,Reptiles
26,0,Reptiles
27,0,Reptiles
28,0,Reptiles
29,0,Reptiles
30,0,Reptiles
31,0,Reptiles
32,0,Reptiles
33,0,Reptiles
34,0,Reptiles
35,0,Reptiles
36,0,Reptiles
37,0,Reptiles
38,1,Reptiles
39,0,Reptiles
40,0,Reptiles
41,0,Reptiles
42,1,Reptiles
43,0,Reptiles
44,0,Reptiles
45,0,Reptiles
46,0,Reptiles
47,0,Reptiles
48,0,Reptiles
49,0,Reptiles
50,0,Reptiles
51,1,Reptiles
52,0,Reptiles
53,0,Reptiles
54,0,Reptiles
55,0,Reptiles
56,0,Reptiles
57,0,Reptiles
58,0,Reptiles
59,0,Reptiles
60,0,Reptiles
61,1,Reptiles
62,0,Reptiles
63,0,Reptiles
64,0,Reptiles
65,0,Reptiles
66,0,Reptiles
67,0,Reptiles